<?xml version="1.0" encoding="UTF-8" standalone="no"?>
<!-- Created with Inkscape (http://www.inkscape.org/) -->

<svg
   xmlns:dc="http://purl.org/dc/elements/1.1/"
   xmlns:cc="http://creativecommons.org/ns#"
   xmlns:rdf="http://www.w3.org/1999/02/22-rdf-syntax-ns#"
   xmlns:svg="http://www.w3.org/2000/svg"
   xmlns="http://www.w3.org/2000/svg"
   xmlns:sodipodi="http://sodipodi.sourceforge.net/DTD/sodipodi-0.dtd"
   xmlns:inkscape="http://www.inkscape.org/namespaces/inkscape"
   id="svg2"
   version="1.1"
   inkscape:version="0.91 r13725"
   xml:space="preserve"
   width="188.17569"
   height="191.48621"
   viewBox="0 0 188.17569 191.48621"
   sodipodi:docname="shunted_JRM.svg"><metadata
     id="metadata8"><rdf:RDF><cc:Work
         rdf:about=""><dc:format>image/svg+xml</dc:format><dc:type
           rdf:resource="http://purl.org/dc/dcmitype/StillImage" /><dc:title /></cc:Work></rdf:RDF></metadata><defs
     id="defs6"><clipPath
       clipPathUnits="userSpaceOnUse"
       id="clipPath18"><path
         d="m 0,0 340.158,0 0,226.772 L 0,226.772 0,0 Z"
         id="path20"
         inkscape:connector-curvature="0" /></clipPath><clipPath
       clipPathUnits="userSpaceOnUse"
       id="clipPath126"><path
         d="m 0,226.772 340.158,0 L 340.158,0 0,0 0,226.772 Z"
         id="path128"
         inkscape:connector-curvature="0" /></clipPath></defs><sodipodi:namedview
     pagecolor="#ffffff"
     bordercolor="#666666"
     borderopacity="1"
     objecttolerance="10"
     gridtolerance="10"
     guidetolerance="10"
     inkscape:pageopacity="0"
     inkscape:pageshadow="2"
     inkscape:window-width="1596"
     inkscape:window-height="865"
     id="namedview4"
     showgrid="false"
     fit-margin-top="0"
     fit-margin-left="0"
     fit-margin-right="0"
     fit-margin-bottom="0"
     inkscape:zoom="7.6282828"
     inkscape:cx="106.00887"
     inkscape:cy="154.95163"
     inkscape:window-x="0"
     inkscape:window-y="33"
     inkscape:window-maximized="0"
     inkscape:current-layer="g10" /><g
     id="g10"
     inkscape:groupmode="layer"
     inkscape:label="Thesis_Flavius_A Practical Quantum-Limited Parametric Amplifier"
     transform="matrix(1.25,0,0,-1.25,-420.7613,854.38599)"><g
       transform="translate(412.9091,666.7471)"
       id="g634"><path
         inkscape:connector-curvature="0"
         id="path636"
         style="fill:none;stroke:#231f20;stroke-width:1;stroke-linecap:round;stroke-linejoin:round;stroke-miterlimit:4;stroke-dasharray:none;stroke-opacity:1"
         d="M 0,0 60.133,-60.132 0,-120.263 -60.132,-60.132 0,0 Z" /></g><g
       transform="translate(432.3671,636.6811)"
       id="g638"><path
         inkscape:connector-curvature="0"
         id="path640"
         style="fill:#ffffff;fill-opacity:1;fill-rule:nonzero;stroke:none"
         d="M 0,0 10.607,10.607 21.214,0.001 10.605,-10.606 0,0 Z" /></g><g
       transform="translate(432.3671,636.6811)"
       id="g642"><path
         inkscape:connector-curvature="0"
         id="path644"
         style="fill:none;stroke:#231f20;stroke-width:1;stroke-linecap:round;stroke-linejoin:round;stroke-miterlimit:4;stroke-dasharray:none;stroke-opacity:1"
         d="M 0,0 10.607,10.607 21.214,0.001 10.605,-10.606 0,0 Z" /></g><g
       transform="translate(453.581,636.6826)"
       id="g646"><path
         inkscape:connector-curvature="0"
         id="path648"
         style="fill:#ffffff;fill-opacity:1;fill-rule:nonzero;stroke:#231f20;stroke-width:1;stroke-linecap:round;stroke-linejoin:round;stroke-miterlimit:4;stroke-dasharray:none;stroke-opacity:1"
         d="M 0,0 -21.214,-0.001" /></g><g
       transform="translate(442.9726,626.0752)"
       id="g650"><path
         inkscape:connector-curvature="0"
         id="path652"
         style="fill:#ffffff;fill-opacity:1;fill-rule:nonzero;stroke:#231f20;stroke-width:1;stroke-linecap:round;stroke-linejoin:round;stroke-miterlimit:4;stroke-dasharray:none;stroke-opacity:1"
         d="M 0,0 0.002,21.213" /></g><g
       transform="translate(372.2353,576.5503)"
       id="g654"><path
         inkscape:connector-curvature="0"
         id="path656"
         style="fill:#ffffff;fill-opacity:1;fill-rule:nonzero;stroke:none"
         d="M 0,0 10.606,10.606 21.213,0.001 10.605,-10.605 0,0 Z" /></g><g
       transform="translate(372.2353,576.5503)"
       id="g658"><path
         inkscape:connector-curvature="0"
         id="path660"
         style="fill:none;stroke:#231f20;stroke-width:1;stroke-linecap:round;stroke-linejoin:round;stroke-miterlimit:4;stroke-dasharray:none;stroke-opacity:1"
         d="M 0,0 10.606,10.606 21.213,0.001 10.605,-10.605 0,0 Z" /></g><g
       transform="translate(393.4481,576.5513)"
       id="g662"><path
         inkscape:connector-curvature="0"
         id="path664"
         style="fill:#ffffff;fill-opacity:1;fill-rule:nonzero;stroke:#231f20;stroke-width:1;stroke-linecap:round;stroke-linejoin:round;stroke-miterlimit:4;stroke-dasharray:none;stroke-opacity:1"
         d="M 0,0 -21.213,-0.001" /></g><g
       transform="translate(382.8407,565.9448)"
       id="g666"><path
         inkscape:connector-curvature="0"
         id="path668"
         style="fill:#ffffff;fill-opacity:1;fill-rule:nonzero;stroke:#231f20;stroke-width:1;stroke-linecap:round;stroke-linejoin:round;stroke-miterlimit:4;stroke-dasharray:none;stroke-opacity:1"
         d="M 0,0 0.001,21.212" /></g><g
       transform="translate(432.369,576.5513)"
       id="g670"><path
         inkscape:connector-curvature="0"
         id="path672"
         style="fill:#ffffff;fill-opacity:1;fill-rule:nonzero;stroke:none"
         d="M 0,0 10.605,10.605 21.214,-0.001 10.608,-10.606 0,0 Z" /></g><g
       transform="translate(432.369,576.5513)"
       id="g674"><path
         inkscape:connector-curvature="0"
         id="path676"
         style="fill:none;stroke:#231f20;stroke-width:1;stroke-linecap:round;stroke-linejoin:round;stroke-miterlimit:4;stroke-dasharray:none;stroke-opacity:1"
         d="M 0,0 10.605,10.605 21.214,-0.001 10.608,-10.606 0,0 Z" /></g><g
       transform="translate(453.5829,576.5503)"
       id="g678"><path
         inkscape:connector-curvature="0"
         id="path680"
         style="fill:#ffffff;fill-opacity:1;fill-rule:nonzero;stroke:#231f20;stroke-width:1;stroke-linecap:round;stroke-linejoin:round;stroke-miterlimit:4;stroke-dasharray:none;stroke-opacity:1"
         d="M 0,0 -21.214,0.001" /></g><g
       transform="translate(442.9774,565.9448)"
       id="g682"><path
         inkscape:connector-curvature="0"
         id="path684"
         style="fill:#ffffff;fill-opacity:1;fill-rule:nonzero;stroke:#231f20;stroke-width:1;stroke-linecap:round;stroke-linejoin:round;stroke-miterlimit:4;stroke-dasharray:none;stroke-opacity:1"
         d="M 0,0 -0.003,21.212" /></g><g
       transform="translate(372.2353,636.6811)"
       id="g686"><path
         inkscape:connector-curvature="0"
         id="path688"
         style="fill:#ffffff;fill-opacity:1;fill-rule:nonzero;stroke:none"
         d="M 0,0 10.608,10.608 21.211,0.001 10.605,-10.604 0,0 Z" /></g><g
       transform="translate(372.2353,636.6811)"
       id="g690"><path
         inkscape:connector-curvature="0"
         id="path692"
         style="fill:none;stroke:#231f20;stroke-width:1;stroke-linecap:round;stroke-linejoin:round;stroke-miterlimit:4;stroke-dasharray:none;stroke-opacity:1"
         d="M 0,0 10.608,10.608 21.211,0.001 10.605,-10.604 0,0 Z" /></g><g
       transform="translate(393.4462,636.6826)"
       id="g694"><path
         inkscape:connector-curvature="0"
         id="path696"
         style="fill:#ffffff;fill-opacity:1;fill-rule:nonzero;stroke:#231f20;stroke-width:1;stroke-linecap:round;stroke-linejoin:round;stroke-miterlimit:4;stroke-dasharray:none;stroke-opacity:1"
         d="M 0,0 -21.211,-0.001" /></g><g
       transform="translate(382.8407,626.0771)"
       id="g698"><path
         inkscape:connector-curvature="0"
         id="path700"
         style="fill:#ffffff;fill-opacity:1;fill-rule:nonzero;stroke:#231f20;stroke-width:1;stroke-linecap:round;stroke-linejoin:round;stroke-miterlimit:4;stroke-dasharray:none;stroke-opacity:1"
         d="M 0,0 0.003,21.212" /></g><g
       transform="translate(412.9081,546.4936)"
       id="g702"><path
         inkscape:connector-curvature="0"
         id="path704"
         style="fill:none;stroke:#231f20;stroke-width:1;stroke-linecap:round;stroke-linejoin:round;stroke-miterlimit:4;stroke-dasharray:none;stroke-opacity:1"
         d="M 0,0 0.003,120.243" /></g><g
       transform="translate(412.9091,606.6143)"
       id="g706"><path
         inkscape:connector-curvature="0"
         id="path708"
         style="fill:none;stroke:#231f20;stroke-width:1;stroke-linecap:round;stroke-linejoin:round;stroke-miterlimit:4;stroke-dasharray:none;stroke-opacity:1"
         d="M 0,0 0,0" /></g><g
       transform="translate(473.0312,606.6162)"
       id="g710"><path
         inkscape:connector-curvature="0"
         id="path712"
         style="fill:none;stroke:#231f20;stroke-width:1;stroke-linecap:round;stroke-linejoin:round;stroke-miterlimit:4;stroke-dasharray:none;stroke-opacity:1"
         d="M 0,0 -120.245,-0.001" /></g><g
       transform="translate(364.2724,606.6797)"
       id="g714"><path
         inkscape:connector-curvature="0"
         id="path716"
         style="fill:none;stroke:#231f20;stroke-width:1;stroke-linecap:butt;stroke-linejoin:miter;stroke-miterlimit:4;stroke-dasharray:none;stroke-opacity:1"
         d="M 0,0 41.998,0" /></g><path
       inkscape:connector-curvature="0"
       id="path718"
       style="fill:#ffffff;fill-opacity:1;fill-rule:evenodd;stroke:none"
       d="m 398.965,613.091 -27.77,0 0,-12.528 27.77,0 0,12.528 z" /><g
       transform="translate(398.7226,600.563)"
       id="g720"><path
         inkscape:connector-curvature="0"
         id="path722"
         style="fill:#ffffff;fill-opacity:1;fill-rule:evenodd;stroke:none"
         d="m 0,0 -0.002,12.53 -27.768,0 L -27.77,0 0,0 Z" /></g><g
       transform="translate(398.7226,600.563)"
       id="g724"><path
         inkscape:connector-curvature="0"
         id="path726"
         style="fill:none;stroke:#ffffff;stroke-width:1;stroke-linecap:square;stroke-linejoin:miter;stroke-miterlimit:10;stroke-dasharray:none;stroke-opacity:1"
         d="m 0,0 -0.002,12.53 -27.768,0 L -27.77,0 0,0 Z" /></g><path
       inkscape:connector-curvature="0"
       id="path728"
       style="fill:none;stroke:#ffffff;stroke-width:1;stroke-linecap:square;stroke-linejoin:miter;stroke-miterlimit:10;stroke-dasharray:none;stroke-opacity:1"
       d="m 398.965,613.091 -27.77,0 0,-12.528 27.77,0 0,12.528 z" /><g
       transform="translate(397.1278,602.1831)"
       id="g730"><path
         inkscape:connector-curvature="0"
         id="path732"
         style="fill:#ffffff;fill-opacity:1;fill-rule:evenodd;stroke:none"
         d="m 0,0 c -4.109,-0.096 -4.113,9.199 -1.976,9.199 2.059,0 1.982,-9.295 -2.133,-9.295" /></g><g
       transform="translate(397.1278,602.1831)"
       id="g734"><path
         inkscape:connector-curvature="0"
         id="path736"
         style="fill:#ffffff;fill-opacity:1;fill-rule:evenodd;stroke:#231f20;stroke-width:1;stroke-linecap:round;stroke-linejoin:round;stroke-miterlimit:10;stroke-dasharray:none;stroke-opacity:1"
         d="m 0,0 c -4.109,-0.096 -4.113,9.199 -1.976,9.199 2.059,0 1.982,-9.295 -2.133,-9.295" /></g><g
       transform="translate(397.1278,602.1831)"
       id="g738"><path
         inkscape:connector-curvature="0"
         id="path740"
         style="fill:none;stroke:#231f20;stroke-width:1;stroke-linecap:round;stroke-linejoin:round;stroke-miterlimit:10;stroke-dasharray:none;stroke-opacity:1"
         d="m 0,0 c -4.109,-0.096 -4.113,9.199 -1.976,9.199 2.059,0 1.982,-9.295 -2.133,-9.295" /></g><g
       transform="translate(393.0146,602.1831)"
       id="g742"><path
         inkscape:connector-curvature="0"
         id="path744"
         style="fill:#ffffff;fill-opacity:1;fill-rule:evenodd;stroke:none"
         d="m 0,0 c -4.112,-0.096 -4.114,9.201 -1.976,9.199 2.055,0.002 1.98,-9.295 -2.136,-9.295" /></g><g
       transform="translate(393.0146,602.1831)"
       id="g746"><path
         inkscape:connector-curvature="0"
         id="path748"
         style="fill:#ffffff;fill-opacity:1;fill-rule:evenodd;stroke:#231f20;stroke-width:1;stroke-linecap:round;stroke-linejoin:round;stroke-miterlimit:10;stroke-dasharray:none;stroke-opacity:1"
         d="m 0,0 c -4.112,-0.096 -4.114,9.201 -1.976,9.199 2.055,0.002 1.98,-9.295 -2.136,-9.295" /></g><g
       transform="translate(393.0146,602.1831)"
       id="g750"><path
         inkscape:connector-curvature="0"
         id="path752"
         style="fill:none;stroke:#231f20;stroke-width:1;stroke-linecap:round;stroke-linejoin:round;stroke-miterlimit:10;stroke-dasharray:none;stroke-opacity:1"
         d="m 0,0 c -4.112,-0.096 -4.114,9.201 -1.976,9.199 2.055,0.002 1.98,-9.295 -2.136,-9.295" /></g><g
       transform="translate(388.9003,602.1831)"
       id="g754"><path
         inkscape:connector-curvature="0"
         id="path756"
         style="fill:#ffffff;fill-opacity:1;fill-rule:evenodd;stroke:none"
         d="M 0,0 C -4.109,-0.096 -4.114,9.201 -1.976,9.201 0.081,9.199 0.002,-0.096 -4.109,-0.096" /></g><g
       transform="translate(388.9003,602.1831)"
       id="g758"><path
         inkscape:connector-curvature="0"
         id="path760"
         style="fill:#ffffff;fill-opacity:1;fill-rule:evenodd;stroke:#231f20;stroke-width:1;stroke-linecap:round;stroke-linejoin:round;stroke-miterlimit:10;stroke-dasharray:none;stroke-opacity:1"
         d="M 0,0 C -4.109,-0.096 -4.114,9.201 -1.976,9.201 0.081,9.199 0.002,-0.096 -4.109,-0.096" /></g><g
       transform="translate(388.9003,602.1831)"
       id="g762"><path
         inkscape:connector-curvature="0"
         id="path764"
         style="fill:none;stroke:#231f20;stroke-width:1;stroke-linecap:round;stroke-linejoin:round;stroke-miterlimit:10;stroke-dasharray:none;stroke-opacity:1"
         d="M 0,0 C -4.109,-0.096 -4.114,9.201 -1.976,9.201 0.081,9.199 0.002,-0.096 -4.109,-0.096" /></g><g
       transform="translate(384.786,602.1831)"
       id="g766"><path
         inkscape:connector-curvature="0"
         id="path768"
         style="fill:#ffffff;fill-opacity:1;fill-rule:evenodd;stroke:none"
         d="M 0,0 C -4.109,-0.096 -4.113,9.201 -1.977,9.199 0.082,9.201 0.005,-0.096 -4.109,-0.096" /></g><g
       transform="translate(384.786,602.1831)"
       id="g770"><path
         inkscape:connector-curvature="0"
         id="path772"
         style="fill:#ffffff;fill-opacity:1;fill-rule:evenodd;stroke:#231f20;stroke-width:1;stroke-linecap:round;stroke-linejoin:round;stroke-miterlimit:10;stroke-dasharray:none;stroke-opacity:1"
         d="M 0,0 C -4.109,-0.096 -4.113,9.201 -1.977,9.199 0.082,9.201 0.005,-0.096 -4.109,-0.096" /></g><g
       transform="translate(384.786,602.1831)"
       id="g774"><path
         inkscape:connector-curvature="0"
         id="path776"
         style="fill:none;stroke:#231f20;stroke-width:1;stroke-linecap:round;stroke-linejoin:round;stroke-miterlimit:10;stroke-dasharray:none;stroke-opacity:1"
         d="M 0,0 C -4.109,-0.096 -4.113,9.201 -1.977,9.199 0.082,9.201 0.005,-0.096 -4.109,-0.096" /></g><g
       transform="translate(380.6728,602.1831)"
       id="g778"><path
         inkscape:connector-curvature="0"
         id="path780"
         style="fill:#ffffff;fill-opacity:1;fill-rule:evenodd;stroke:none"
         d="m 0,0 c -4.109,-0.096 -4.112,9.199 -1.976,9.201 2.056,0 1.98,-9.297 -2.133,-9.297" /></g><g
       transform="translate(380.6728,602.1831)"
       id="g782"><path
         inkscape:connector-curvature="0"
         id="path784"
         style="fill:#ffffff;fill-opacity:1;fill-rule:evenodd;stroke:#231f20;stroke-width:1;stroke-linecap:round;stroke-linejoin:round;stroke-miterlimit:10;stroke-dasharray:none;stroke-opacity:1"
         d="m 0,0 c -4.109,-0.096 -4.112,9.199 -1.976,9.201 2.056,0 1.98,-9.297 -2.133,-9.297" /></g><g
       transform="translate(380.6728,602.1831)"
       id="g786"><path
         inkscape:connector-curvature="0"
         id="path788"
         style="fill:none;stroke:#231f20;stroke-width:1;stroke-linecap:round;stroke-linejoin:round;stroke-miterlimit:10;stroke-dasharray:none;stroke-opacity:1"
         d="m 0,0 c -4.109,-0.096 -4.112,9.199 -1.976,9.201 2.056,0 1.98,-9.297 -2.133,-9.297" /></g><g
       transform="translate(376.5595,602.1831)"
       id="g790"><path
         inkscape:connector-curvature="0"
         id="path792"
         style="fill:#ffffff;fill-opacity:1;fill-rule:evenodd;stroke:none"
         d="m 0,0 c -4.11,-0.094 -4.116,9.201 -1.977,9.199 2.058,0 1.981,-9.295 -2.133,-9.293" /></g><g
       transform="translate(376.5595,602.1831)"
       id="g794"><path
         inkscape:connector-curvature="0"
         id="path796"
         style="fill:#ffffff;fill-opacity:1;fill-rule:evenodd;stroke:#231f20;stroke-width:1;stroke-linecap:round;stroke-linejoin:round;stroke-miterlimit:10;stroke-dasharray:none;stroke-opacity:1"
         d="m 0,0 c -4.11,-0.094 -4.116,9.201 -1.977,9.199 2.058,0 1.981,-9.295 -2.133,-9.293" /></g><g
       transform="translate(376.5595,602.1831)"
       id="g798"><path
         inkscape:connector-curvature="0"
         id="path800"
         style="fill:none;stroke:#231f20;stroke-width:1;stroke-linecap:round;stroke-linejoin:round;stroke-miterlimit:10;stroke-dasharray:none;stroke-opacity:1"
         d="m 0,0 c -4.11,-0.094 -4.116,9.201 -1.977,9.199 2.058,0 1.981,-9.295 -2.133,-9.293" /></g><g
       transform="translate(372.4452,602.1216)"
       id="g802"><path
         inkscape:connector-curvature="0"
         id="path804"
         style="fill:#ffffff;fill-opacity:1;fill-rule:evenodd;stroke:none"
         d="M 0,0 C -1.646,0.721 -2.057,2.429 -2.057,5.276" /></g><g
       transform="translate(372.4452,602.1216)"
       id="g806"><path
         inkscape:connector-curvature="0"
         id="path808"
         style="fill:#ffffff;fill-opacity:1;fill-rule:evenodd;stroke:#231f20;stroke-width:1;stroke-linecap:round;stroke-linejoin:round;stroke-miterlimit:10;stroke-dasharray:none;stroke-opacity:1"
         d="M 0,0 C -1.646,0.721 -2.057,2.429 -2.057,5.276" /></g><g
       transform="translate(372.4452,602.1216)"
       id="g810"><path
         inkscape:connector-curvature="0"
         id="path812"
         style="fill:none;stroke:#231f20;stroke-width:1;stroke-linecap:round;stroke-linejoin:round;stroke-miterlimit:10;stroke-dasharray:none;stroke-opacity:1"
         d="M 0,0 C -1.646,0.721 -2.057,2.429 -2.057,5.276" /></g><g
       transform="translate(397.1269,602.1216)"
       id="g814"><path
         inkscape:connector-curvature="0"
         id="path816"
         style="fill:#ffffff;fill-opacity:1;fill-rule:evenodd;stroke:none"
         d="M 0,0 C 1.647,0.721 2.057,2.429 2.058,5.276" /></g><g
       transform="translate(397.1269,602.1216)"
       id="g818"><path
         inkscape:connector-curvature="0"
         id="path820"
         style="fill:#ffffff;fill-opacity:1;fill-rule:evenodd;stroke:#231f20;stroke-width:1;stroke-linecap:round;stroke-linejoin:round;stroke-miterlimit:10;stroke-dasharray:none;stroke-opacity:1"
         d="M 0,0 C 1.647,0.721 2.057,2.429 2.058,5.276" /></g><g
       transform="translate(397.1269,602.1216)"
       id="g822"><path
         inkscape:connector-curvature="0"
         id="path824"
         style="fill:none;stroke:#231f20;stroke-width:1;stroke-linecap:round;stroke-linejoin:round;stroke-miterlimit:10;stroke-dasharray:none;stroke-opacity:1"
         d="M 0,0 C 1.647,0.721 2.057,2.429 2.058,5.276" /></g><g
       transform="translate(419.5458,606.6797)"
       id="g826"><path
         inkscape:connector-curvature="0"
         id="path828"
         style="fill:none;stroke:#231f20;stroke-width:1;stroke-linecap:butt;stroke-linejoin:miter;stroke-miterlimit:4;stroke-dasharray:none;stroke-opacity:1"
         d="M 0,0 41.999,0" /></g><path
       inkscape:connector-curvature="0"
       id="path830"
       style="fill:#ffffff;fill-opacity:1;fill-rule:evenodd;stroke:none"
       d="m 454.237,613.096 -27.768,0 0,-12.533 27.768,0 0,12.533 z" /><path
       inkscape:connector-curvature="0"
       id="path832"
       style="fill:#ffffff;fill-opacity:1;fill-rule:evenodd;stroke:#ffffff;stroke-width:1;stroke-linecap:square;stroke-linejoin:miter;stroke-miterlimit:10;stroke-dasharray:none;stroke-opacity:1"
       d="m 453.996,613.096 -27.767,0 0,-12.533 27.767,0 0,12.533 z" /><path
       inkscape:connector-curvature="0"
       id="path834"
       style="fill:none;stroke:#ffffff;stroke-width:1;stroke-linecap:square;stroke-linejoin:miter;stroke-miterlimit:10;stroke-dasharray:none;stroke-opacity:1"
       d="m 454.237,613.096 -27.768,0 0,-12.533 27.768,0 0,12.533 z" /><g
       transform="translate(452.4003,602.1831)"
       id="g836"><path
         inkscape:connector-curvature="0"
         id="path838"
         style="fill:#ffffff;fill-opacity:1;fill-rule:evenodd;stroke:none"
         d="M 0,0 C -4.105,-0.096 -4.108,9.205 -1.973,9.205 0.084,9.203 0.006,-0.096 -4.105,-0.096" /></g><g
       transform="translate(452.4003,602.1831)"
       id="g840"><path
         inkscape:connector-curvature="0"
         id="path842"
         style="fill:#ffffff;fill-opacity:1;fill-rule:evenodd;stroke:#231f20;stroke-width:1;stroke-linecap:round;stroke-linejoin:round;stroke-miterlimit:10;stroke-dasharray:none;stroke-opacity:1"
         d="M 0,0 C -4.105,-0.096 -4.108,9.205 -1.973,9.205 0.084,9.203 0.006,-0.096 -4.105,-0.096" /></g><g
       transform="translate(452.4003,602.1831)"
       id="g844"><path
         inkscape:connector-curvature="0"
         id="path846"
         style="fill:none;stroke:#231f20;stroke-width:1;stroke-linecap:round;stroke-linejoin:round;stroke-miterlimit:10;stroke-dasharray:none;stroke-opacity:1"
         d="M 0,0 C -4.105,-0.096 -4.108,9.205 -1.973,9.205 0.084,9.203 0.006,-0.096 -4.105,-0.096" /></g><g
       transform="translate(448.2899,602.1831)"
       id="g848"><path
         inkscape:connector-curvature="0"
         id="path850"
         style="fill:#ffffff;fill-opacity:1;fill-rule:evenodd;stroke:none"
         d="m 0,0 c -4.111,-0.096 -4.113,9.203 -1.978,9.205 2.057,0 1.983,-9.301 -2.133,-9.301" /></g><g
       transform="translate(448.2899,602.1831)"
       id="g852"><path
         inkscape:connector-curvature="0"
         id="path854"
         style="fill:#ffffff;fill-opacity:1;fill-rule:evenodd;stroke:#231f20;stroke-width:1;stroke-linecap:round;stroke-linejoin:round;stroke-miterlimit:10;stroke-dasharray:none;stroke-opacity:1"
         d="m 0,0 c -4.111,-0.096 -4.113,9.203 -1.978,9.205 2.057,0 1.983,-9.301 -2.133,-9.301" /></g><g
       transform="translate(448.2899,602.1831)"
       id="g856"><path
         inkscape:connector-curvature="0"
         id="path858"
         style="fill:none;stroke:#231f20;stroke-width:1;stroke-linecap:round;stroke-linejoin:round;stroke-miterlimit:10;stroke-dasharray:none;stroke-opacity:1"
         d="m 0,0 c -4.111,-0.096 -4.113,9.203 -1.978,9.205 2.057,0 1.983,-9.301 -2.133,-9.301" /></g><g
       transform="translate(444.1757,602.1831)"
       id="g860"><path
         inkscape:connector-curvature="0"
         id="path862"
         style="fill:#ffffff;fill-opacity:1;fill-rule:evenodd;stroke:none"
         d="M 0,0 C -4.107,-0.096 -4.115,9.205 -1.975,9.203 0.08,9.205 0.003,-0.096 -4.107,-0.096" /></g><g
       transform="translate(444.1757,602.1831)"
       id="g864"><path
         inkscape:connector-curvature="0"
         id="path866"
         style="fill:#ffffff;fill-opacity:1;fill-rule:evenodd;stroke:#231f20;stroke-width:1;stroke-linecap:round;stroke-linejoin:round;stroke-miterlimit:10;stroke-dasharray:none;stroke-opacity:1"
         d="M 0,0 C -4.107,-0.096 -4.115,9.205 -1.975,9.203 0.08,9.205 0.003,-0.096 -4.107,-0.096" /></g><g
       transform="translate(444.1757,602.1831)"
       id="g868"><path
         inkscape:connector-curvature="0"
         id="path870"
         style="fill:none;stroke:#231f20;stroke-width:1;stroke-linecap:round;stroke-linejoin:round;stroke-miterlimit:10;stroke-dasharray:none;stroke-opacity:1"
         d="M 0,0 C -4.107,-0.096 -4.115,9.205 -1.975,9.203 0.08,9.205 0.003,-0.096 -4.107,-0.096" /></g><g
       transform="translate(440.0624,602.1831)"
       id="g872"><path
         inkscape:connector-curvature="0"
         id="path874"
         style="fill:#ffffff;fill-opacity:1;fill-rule:evenodd;stroke:none"
         d="m 0,0 c -4.11,-0.096 -4.115,9.203 -1.976,9.205 2.058,0 1.982,-9.301 -2.134,-9.301" /></g><g
       transform="translate(440.0624,602.1831)"
       id="g876"><path
         inkscape:connector-curvature="0"
         id="path878"
         style="fill:#ffffff;fill-opacity:1;fill-rule:evenodd;stroke:#231f20;stroke-width:1;stroke-linecap:round;stroke-linejoin:round;stroke-miterlimit:10;stroke-dasharray:none;stroke-opacity:1"
         d="m 0,0 c -4.11,-0.096 -4.115,9.203 -1.976,9.205 2.058,0 1.982,-9.301 -2.134,-9.301" /></g><g
       transform="translate(440.0624,602.1831)"
       id="g880"><path
         inkscape:connector-curvature="0"
         id="path882"
         style="fill:none;stroke:#231f20;stroke-width:1;stroke-linecap:round;stroke-linejoin:round;stroke-miterlimit:10;stroke-dasharray:none;stroke-opacity:1"
         d="m 0,0 c -4.11,-0.096 -4.115,9.203 -1.976,9.205 2.058,0 1.982,-9.301 -2.134,-9.301" /></g><g
       transform="translate(435.9472,602.1831)"
       id="g884"><path
         inkscape:connector-curvature="0"
         id="path886"
         style="fill:#ffffff;fill-opacity:1;fill-rule:evenodd;stroke:none"
         d="M 0,0 C -4.107,-0.096 -4.113,9.205 -1.974,9.205 0.083,9.203 0.005,-0.096 -4.107,-0.096" /></g><g
       transform="translate(435.9472,602.1831)"
       id="g888"><path
         inkscape:connector-curvature="0"
         id="path890"
         style="fill:#ffffff;fill-opacity:1;fill-rule:evenodd;stroke:#231f20;stroke-width:1;stroke-linecap:round;stroke-linejoin:round;stroke-miterlimit:10;stroke-dasharray:none;stroke-opacity:1"
         d="M 0,0 C -4.107,-0.096 -4.113,9.205 -1.974,9.205 0.083,9.203 0.005,-0.096 -4.107,-0.096" /></g><g
       transform="translate(435.9472,602.1831)"
       id="g892"><path
         inkscape:connector-curvature="0"
         id="path894"
         style="fill:none;stroke:#231f20;stroke-width:1;stroke-linecap:round;stroke-linejoin:round;stroke-miterlimit:10;stroke-dasharray:none;stroke-opacity:1"
         d="M 0,0 C -4.107,-0.096 -4.113,9.205 -1.974,9.205 0.083,9.203 0.005,-0.096 -4.107,-0.096" /></g><g
       transform="translate(431.8358,602.1831)"
       id="g896"><path
         inkscape:connector-curvature="0"
         id="path898"
         style="fill:#ffffff;fill-opacity:1;fill-rule:evenodd;stroke:none"
         d="m 0,0 c -4.11,-0.096 -4.115,9.205 -1.978,9.205 2.057,0 1.982,-9.301 -2.132,-9.301" /></g><g
       transform="translate(431.8358,602.1831)"
       id="g900"><path
         inkscape:connector-curvature="0"
         id="path902"
         style="fill:#ffffff;fill-opacity:1;fill-rule:evenodd;stroke:#231f20;stroke-width:1;stroke-linecap:round;stroke-linejoin:round;stroke-miterlimit:10;stroke-dasharray:none;stroke-opacity:1"
         d="m 0,0 c -4.11,-0.096 -4.115,9.205 -1.978,9.205 2.057,0 1.982,-9.301 -2.132,-9.301" /></g><g
       transform="translate(431.8358,602.1831)"
       id="g904"><path
         inkscape:connector-curvature="0"
         id="path906"
         style="fill:none;stroke:#231f20;stroke-width:1;stroke-linecap:round;stroke-linejoin:round;stroke-miterlimit:10;stroke-dasharray:none;stroke-opacity:1"
         d="m 0,0 c -4.11,-0.096 -4.115,9.205 -1.978,9.205 2.057,0 1.982,-9.301 -2.132,-9.301" /></g><g
       transform="translate(427.7206,602.1216)"
       id="g908"><path
         inkscape:connector-curvature="0"
         id="path910"
         style="fill:#ffffff;fill-opacity:1;fill-rule:evenodd;stroke:none"
         d="M 0,0 C -1.646,0.721 -2.056,2.429 -2.056,5.276" /></g><g
       transform="translate(427.7206,602.1216)"
       id="g912"><path
         inkscape:connector-curvature="0"
         id="path914"
         style="fill:#ffffff;fill-opacity:1;fill-rule:evenodd;stroke:#231f20;stroke-width:1;stroke-linecap:round;stroke-linejoin:round;stroke-miterlimit:10;stroke-dasharray:none;stroke-opacity:1"
         d="M 0,0 C -1.646,0.721 -2.056,2.429 -2.056,5.276" /></g><g
       transform="translate(427.7206,602.1216)"
       id="g916"><path
         inkscape:connector-curvature="0"
         id="path918"
         style="fill:none;stroke:#231f20;stroke-width:1;stroke-linecap:round;stroke-linejoin:round;stroke-miterlimit:10;stroke-dasharray:none;stroke-opacity:1"
         d="M 0,0 C -1.646,0.721 -2.056,2.429 -2.056,5.276" /></g><g
       transform="translate(452.4023,602.1216)"
       id="g920"><path
         inkscape:connector-curvature="0"
         id="path922"
         style="fill:#ffffff;fill-opacity:1;fill-rule:evenodd;stroke:none"
         d="M 0,0 C 1.646,0.721 2.055,2.431 2.057,5.276" /></g><g
       transform="translate(452.4023,602.1216)"
       id="g924"><path
         inkscape:connector-curvature="0"
         id="path926"
         style="fill:#ffffff;fill-opacity:1;fill-rule:evenodd;stroke:#231f20;stroke-width:1;stroke-linecap:round;stroke-linejoin:round;stroke-miterlimit:10;stroke-dasharray:none;stroke-opacity:1"
         d="M 0,0 C 1.646,0.721 2.055,2.431 2.057,5.276" /></g><g
       transform="translate(452.4023,602.1216)"
       id="g928"><path
         inkscape:connector-curvature="0"
         id="path930"
         style="fill:none;stroke:#231f20;stroke-width:1;stroke-linecap:round;stroke-linejoin:round;stroke-miterlimit:10;stroke-dasharray:none;stroke-opacity:1"
         d="M 0,0 C 1.646,0.721 2.055,2.431 2.057,5.276" /></g><g
       transform="translate(412.8456,557.98)"
       id="g932"><path
         inkscape:connector-curvature="0"
         id="path934"
         style="fill:none;stroke:#231f20;stroke-width:1;stroke-linecap:butt;stroke-linejoin:miter;stroke-miterlimit:4;stroke-dasharray:none;stroke-opacity:1"
         d="M 0,0 0,41.998" /></g><g
       transform="translate(418.9628,592.6714)"
       id="g936"><path
         inkscape:connector-curvature="0"
         id="path938"
         style="fill:#ffffff;fill-opacity:1;fill-rule:evenodd;stroke:none"
         d="m 0,0 -12.53,0 0,-27.768 12.528,0 L 0,0 Z" /></g><g
       transform="translate(418.9628,592.4302)"
       id="g940"><path
         inkscape:connector-curvature="0"
         id="path942"
         style="fill:#ffffff;fill-opacity:1;fill-rule:evenodd;stroke:none"
         d="M 0,0 -12.529,0 -12.53,-27.769 0,-27.769 0,0 Z" /></g><g
       transform="translate(418.9628,592.4302)"
       id="g944"><path
         inkscape:connector-curvature="0"
         id="path946"
         style="fill:none;stroke:#ffffff;stroke-width:1;stroke-linecap:square;stroke-linejoin:miter;stroke-miterlimit:10;stroke-dasharray:none;stroke-opacity:1"
         d="M 0,0 -12.529,0 -12.53,-27.769 0,-27.769 0,0 Z" /></g><g
       transform="translate(418.9628,592.6714)"
       id="g948"><path
         inkscape:connector-curvature="0"
         id="path950"
         style="fill:none;stroke:#ffffff;stroke-width:1;stroke-linecap:square;stroke-linejoin:miter;stroke-miterlimit:10;stroke-dasharray:none;stroke-opacity:1"
         d="m 0,0 -12.53,0 0,-27.768 12.528,0 L 0,0 Z" /></g><g
       transform="translate(417.3407,590.8364)"
       id="g952"><path
         inkscape:connector-curvature="0"
         id="path954"
         style="fill:#ffffff;fill-opacity:1;fill-rule:evenodd;stroke:none"
         d="m 0,0 c 0.096,-4.108 -9.197,-4.113 -9.198,-1.976 0,2.058 9.292,1.981 9.294,-2.132" /></g><g
       transform="translate(417.3407,590.8364)"
       id="g956"><path
         inkscape:connector-curvature="0"
         id="path958"
         style="fill:#ffffff;fill-opacity:1;fill-rule:evenodd;stroke:#231f20;stroke-width:1;stroke-linecap:round;stroke-linejoin:round;stroke-miterlimit:10;stroke-dasharray:none;stroke-opacity:1"
         d="m 0,0 c 0.096,-4.108 -9.197,-4.113 -9.198,-1.976 0,2.058 9.292,1.981 9.294,-2.132" /></g><g
       transform="translate(417.3407,590.8364)"
       id="g960"><path
         inkscape:connector-curvature="0"
         id="path962"
         style="fill:none;stroke:#231f20;stroke-width:1;stroke-linecap:round;stroke-linejoin:round;stroke-miterlimit:10;stroke-dasharray:none;stroke-opacity:1"
         d="m 0,0 c 0.096,-4.108 -9.197,-4.113 -9.198,-1.976 0,2.058 9.292,1.981 9.294,-2.132" /></g><g
       transform="translate(417.3427,586.7222)"
       id="g964"><path
         inkscape:connector-curvature="0"
         id="path966"
         style="fill:#ffffff;fill-opacity:1;fill-rule:evenodd;stroke:none"
         d="M 0,0 C 0.094,-4.109 -9.2,-4.113 -9.2,-1.975 -9.201,0.082 0.094,0.006 0.094,-4.109" /></g><g
       transform="translate(417.3427,586.7222)"
       id="g968"><path
         inkscape:connector-curvature="0"
         id="path970"
         style="fill:#ffffff;fill-opacity:1;fill-rule:evenodd;stroke:#231f20;stroke-width:1;stroke-linecap:round;stroke-linejoin:round;stroke-miterlimit:10;stroke-dasharray:none;stroke-opacity:1"
         d="M 0,0 C 0.094,-4.109 -9.2,-4.113 -9.2,-1.975 -9.201,0.082 0.094,0.006 0.094,-4.109" /></g><g
       transform="translate(417.3427,586.7222)"
       id="g972"><path
         inkscape:connector-curvature="0"
         id="path974"
         style="fill:none;stroke:#231f20;stroke-width:1;stroke-linecap:round;stroke-linejoin:round;stroke-miterlimit:10;stroke-dasharray:none;stroke-opacity:1"
         d="M 0,0 C 0.094,-4.109 -9.2,-4.113 -9.2,-1.975 -9.201,0.082 0.094,0.006 0.094,-4.109" /></g><g
       transform="translate(417.3427,582.6089)"
       id="g976"><path
         inkscape:connector-curvature="0"
         id="path978"
         style="fill:#ffffff;fill-opacity:1;fill-rule:evenodd;stroke:none"
         d="m 0,0 c 0.092,-4.109 -9.2,-4.113 -9.2,-1.977 0,2.057 9.294,1.981 9.292,-2.132" /></g><g
       transform="translate(417.3427,582.6089)"
       id="g980"><path
         inkscape:connector-curvature="0"
         id="path982"
         style="fill:#ffffff;fill-opacity:1;fill-rule:evenodd;stroke:#231f20;stroke-width:1;stroke-linecap:round;stroke-linejoin:round;stroke-miterlimit:10;stroke-dasharray:none;stroke-opacity:1"
         d="m 0,0 c 0.092,-4.109 -9.2,-4.113 -9.2,-1.977 0,2.057 9.294,1.981 9.292,-2.132" /></g><g
       transform="translate(417.3427,582.6089)"
       id="g984"><path
         inkscape:connector-curvature="0"
         id="path986"
         style="fill:none;stroke:#231f20;stroke-width:1;stroke-linecap:round;stroke-linejoin:round;stroke-miterlimit:10;stroke-dasharray:none;stroke-opacity:1"
         d="m 0,0 c 0.092,-4.109 -9.2,-4.113 -9.2,-1.977 0,2.057 9.294,1.981 9.292,-2.132" /></g><g
       transform="translate(417.3417,578.4956)"
       id="g988"><path
         inkscape:connector-curvature="0"
         id="path990"
         style="fill:#ffffff;fill-opacity:1;fill-rule:evenodd;stroke:none"
         d="m 0,0 c 0.093,-4.109 -9.2,-4.113 -9.2,-1.977 0,2.059 9.293,1.981 9.293,-2.132" /></g><g
       transform="translate(417.3417,578.4956)"
       id="g992"><path
         inkscape:connector-curvature="0"
         id="path994"
         style="fill:#ffffff;fill-opacity:1;fill-rule:evenodd;stroke:#231f20;stroke-width:1;stroke-linecap:round;stroke-linejoin:round;stroke-miterlimit:10;stroke-dasharray:none;stroke-opacity:1"
         d="m 0,0 c 0.093,-4.109 -9.2,-4.113 -9.2,-1.977 0,2.059 9.293,1.981 9.293,-2.132" /></g><g
       transform="translate(417.3417,578.4956)"
       id="g996"><path
         inkscape:connector-curvature="0"
         id="path998"
         style="fill:none;stroke:#231f20;stroke-width:1;stroke-linecap:round;stroke-linejoin:round;stroke-miterlimit:10;stroke-dasharray:none;stroke-opacity:1"
         d="m 0,0 c 0.093,-4.109 -9.2,-4.113 -9.2,-1.977 0,2.059 9.293,1.981 9.293,-2.132" /></g><g
       transform="translate(417.3417,574.3823)"
       id="g1000"><path
         inkscape:connector-curvature="0"
         id="path1002"
         style="fill:#ffffff;fill-opacity:1;fill-rule:evenodd;stroke:none"
         d="m 0,0 c 0.095,-4.111 -9.199,-4.113 -9.2,-1.977 10e-4,2.055 9.293,1.981 9.295,-2.134" /></g><g
       transform="translate(417.3417,574.3823)"
       id="g1004"><path
         inkscape:connector-curvature="0"
         id="path1006"
         style="fill:#ffffff;fill-opacity:1;fill-rule:evenodd;stroke:#231f20;stroke-width:1;stroke-linecap:round;stroke-linejoin:round;stroke-miterlimit:10;stroke-dasharray:none;stroke-opacity:1"
         d="m 0,0 c 0.095,-4.111 -9.199,-4.113 -9.2,-1.977 10e-4,2.055 9.293,1.981 9.295,-2.134" /></g><g
       transform="translate(417.3417,574.3823)"
       id="g1008"><path
         inkscape:connector-curvature="0"
         id="path1010"
         style="fill:none;stroke:#231f20;stroke-width:1;stroke-linecap:round;stroke-linejoin:round;stroke-miterlimit:10;stroke-dasharray:none;stroke-opacity:1"
         d="m 0,0 c 0.095,-4.111 -9.199,-4.113 -9.2,-1.977 10e-4,2.055 9.293,1.981 9.295,-2.134" /></g><g
       transform="translate(417.3427,570.2671)"
       id="g1012"><path
         inkscape:connector-curvature="0"
         id="path1014"
         style="fill:#ffffff;fill-opacity:1;fill-rule:evenodd;stroke:none"
         d="m 0,0 c 0.093,-4.109 -9.201,-4.113 -9.199,-1.977 0,2.059 9.293,1.981 9.292,-2.132" /></g><g
       transform="translate(417.3427,570.2671)"
       id="g1016"><path
         inkscape:connector-curvature="0"
         id="path1018"
         style="fill:#ffffff;fill-opacity:1;fill-rule:evenodd;stroke:#231f20;stroke-width:1;stroke-linecap:round;stroke-linejoin:round;stroke-miterlimit:10;stroke-dasharray:none;stroke-opacity:1"
         d="m 0,0 c 0.093,-4.109 -9.201,-4.113 -9.199,-1.977 0,2.059 9.293,1.981 9.292,-2.132" /></g><g
       transform="translate(417.3427,570.2671)"
       id="g1020"><path
         inkscape:connector-curvature="0"
         id="path1022"
         style="fill:none;stroke:#231f20;stroke-width:1;stroke-linecap:round;stroke-linejoin:round;stroke-miterlimit:10;stroke-dasharray:none;stroke-opacity:1"
         d="m 0,0 c 0.093,-4.109 -9.201,-4.113 -9.199,-1.977 0,2.059 9.293,1.981 9.292,-2.132" /></g><g
       transform="translate(417.4042,566.1519)"
       id="g1024"><path
         inkscape:connector-curvature="0"
         id="path1026"
         style="fill:#ffffff;fill-opacity:1;fill-rule:evenodd;stroke:none"
         d="M 0,0 C -0.723,-1.645 -2.432,-2.055 -5.278,-2.057" /></g><g
       transform="translate(417.4042,566.1519)"
       id="g1028"><path
         inkscape:connector-curvature="0"
         id="path1030"
         style="fill:#ffffff;fill-opacity:1;fill-rule:evenodd;stroke:#231f20;stroke-width:1;stroke-linecap:round;stroke-linejoin:round;stroke-miterlimit:10;stroke-dasharray:none;stroke-opacity:1"
         d="M 0,0 C -0.723,-1.645 -2.432,-2.055 -5.278,-2.057" /></g><g
       transform="translate(417.4042,566.1519)"
       id="g1032"><path
         inkscape:connector-curvature="0"
         id="path1034"
         style="fill:none;stroke:#231f20;stroke-width:1;stroke-linecap:round;stroke-linejoin:round;stroke-miterlimit:10;stroke-dasharray:none;stroke-opacity:1"
         d="M 0,0 C -0.723,-1.645 -2.432,-2.055 -5.278,-2.057" /></g><g
       transform="translate(417.4023,590.8354)"
       id="g1036"><path
         inkscape:connector-curvature="0"
         id="path1038"
         style="fill:#ffffff;fill-opacity:1;fill-rule:evenodd;stroke:none"
         d="M 0,0 C -0.721,1.647 -2.429,2.058 -5.277,2.058" /></g><g
       transform="translate(417.4023,590.8354)"
       id="g1040"><path
         inkscape:connector-curvature="0"
         id="path1042"
         style="fill:#ffffff;fill-opacity:1;fill-rule:evenodd;stroke:#231f20;stroke-width:1;stroke-linecap:round;stroke-linejoin:round;stroke-miterlimit:10;stroke-dasharray:none;stroke-opacity:1"
         d="M 0,0 C -0.721,1.647 -2.429,2.058 -5.277,2.058" /></g><g
       transform="translate(417.4023,590.8354)"
       id="g1044"><path
         inkscape:connector-curvature="0"
         id="path1046"
         style="fill:none;stroke:#231f20;stroke-width:1;stroke-linecap:round;stroke-linejoin:round;stroke-miterlimit:10;stroke-dasharray:none;stroke-opacity:1"
         d="M 0,0 C -0.721,1.647 -2.429,2.058 -5.277,2.058" /></g><g
       transform="translate(412.8456,613.2539)"
       id="g1048"><path
         inkscape:connector-curvature="0"
         id="path1050"
         style="fill:none;stroke:#231f20;stroke-width:1;stroke-linecap:butt;stroke-linejoin:miter;stroke-miterlimit:4;stroke-dasharray:none;stroke-opacity:1"
         d="M 0,0 0,42" /></g><path
       inkscape:connector-curvature="0"
       id="path1052"
       style="fill:#ffffff;fill-opacity:1;fill-rule:evenodd;stroke:none"
       d="m 418.963,647.947 -12.531,0 0,-27.769 12.531,0 0,27.769 z" /><g
       transform="translate(418.9628,647.7026)"
       id="g1054"><path
         inkscape:connector-curvature="0"
         id="path1056"
         style="fill:#ffffff;fill-opacity:1;fill-rule:evenodd;stroke:none"
         d="M 0,0 -12.532,0.001 -12.533,-27.764 0,-27.766 0,0 Z" /></g><g
       transform="translate(418.9628,647.7026)"
       id="g1058"><path
         inkscape:connector-curvature="0"
         id="path1060"
         style="fill:none;stroke:#ffffff;stroke-width:1;stroke-linecap:square;stroke-linejoin:miter;stroke-miterlimit:10;stroke-dasharray:none;stroke-opacity:1"
         d="M 0,0 -12.532,0.001 -12.533,-27.764 0,-27.766 0,0 Z" /></g><path
       inkscape:connector-curvature="0"
       id="path1062"
       style="fill:none;stroke:#ffffff;stroke-width:1;stroke-linecap:square;stroke-linejoin:miter;stroke-miterlimit:10;stroke-dasharray:none;stroke-opacity:1"
       d="m 418.963,647.947 -12.531,0 0,-27.769 12.531,0 0,27.769 z" /><g
       transform="translate(417.3427,646.1089)"
       id="g1064"><path
         inkscape:connector-curvature="0"
         id="path1066"
         style="fill:#ffffff;fill-opacity:1;fill-rule:evenodd;stroke:none"
         d="m 0,0 c 0.095,-4.106 -9.204,-4.109 -9.204,-1.973 0,2.055 9.299,1.979 9.299,-2.133" /></g><g
       transform="translate(417.3427,646.1089)"
       id="g1068"><path
         inkscape:connector-curvature="0"
         id="path1070"
         style="fill:#ffffff;fill-opacity:1;fill-rule:evenodd;stroke:#231f20;stroke-width:1;stroke-linecap:round;stroke-linejoin:round;stroke-miterlimit:10;stroke-dasharray:none;stroke-opacity:1"
         d="m 0,0 c 0.095,-4.106 -9.204,-4.109 -9.204,-1.973 0,2.055 9.299,1.979 9.299,-2.133" /></g><g
       transform="translate(417.3427,646.1089)"
       id="g1072"><path
         inkscape:connector-curvature="0"
         id="path1074"
         style="fill:none;stroke:#231f20;stroke-width:1;stroke-linecap:round;stroke-linejoin:round;stroke-miterlimit:10;stroke-dasharray:none;stroke-opacity:1"
         d="m 0,0 c 0.095,-4.106 -9.204,-4.109 -9.204,-1.973 0,2.055 9.299,1.979 9.299,-2.133" /></g><g
       transform="translate(417.3427,641.9985)"
       id="g1076"><path
         inkscape:connector-curvature="0"
         id="path1078"
         style="fill:#ffffff;fill-opacity:1;fill-rule:evenodd;stroke:none"
         d="m 0,0 c 0.095,-4.112 -9.204,-4.115 -9.204,-1.978 0,2.057 9.299,1.982 9.299,-2.134" /></g><g
       transform="translate(417.3427,641.9985)"
       id="g1080"><path
         inkscape:connector-curvature="0"
         id="path1082"
         style="fill:#ffffff;fill-opacity:1;fill-rule:evenodd;stroke:#231f20;stroke-width:1;stroke-linecap:round;stroke-linejoin:round;stroke-miterlimit:10;stroke-dasharray:none;stroke-opacity:1"
         d="m 0,0 c 0.095,-4.112 -9.204,-4.115 -9.204,-1.978 0,2.057 9.299,1.982 9.299,-2.134" /></g><g
       transform="translate(417.3427,641.9985)"
       id="g1084"><path
         inkscape:connector-curvature="0"
         id="path1086"
         style="fill:none;stroke:#231f20;stroke-width:1;stroke-linecap:round;stroke-linejoin:round;stroke-miterlimit:10;stroke-dasharray:none;stroke-opacity:1"
         d="m 0,0 c 0.095,-4.112 -9.204,-4.115 -9.204,-1.978 0,2.057 9.299,1.982 9.299,-2.134" /></g><g
       transform="translate(417.3427,637.8853)"
       id="g1088"><path
         inkscape:connector-curvature="0"
         id="path1090"
         style="fill:#ffffff;fill-opacity:1;fill-rule:evenodd;stroke:none"
         d="m 0,0 c 0.096,-4.111 -9.204,-4.115 -9.204,-1.976 0,2.055 9.299,1.977 9.3,-2.135" /></g><g
       transform="translate(417.3427,637.8853)"
       id="g1092"><path
         inkscape:connector-curvature="0"
         id="path1094"
         style="fill:#ffffff;fill-opacity:1;fill-rule:evenodd;stroke:#231f20;stroke-width:1;stroke-linecap:round;stroke-linejoin:round;stroke-miterlimit:10;stroke-dasharray:none;stroke-opacity:1"
         d="m 0,0 c 0.096,-4.111 -9.204,-4.115 -9.204,-1.976 0,2.055 9.299,1.977 9.3,-2.135" /></g><g
       transform="translate(417.3427,637.8853)"
       id="g1096"><path
         inkscape:connector-curvature="0"
         id="path1098"
         style="fill:none;stroke:#231f20;stroke-width:1;stroke-linecap:round;stroke-linejoin:round;stroke-miterlimit:10;stroke-dasharray:none;stroke-opacity:1"
         d="m 0,0 c 0.096,-4.111 -9.204,-4.115 -9.204,-1.976 0,2.055 9.299,1.977 9.3,-2.135" /></g><g
       transform="translate(417.3427,633.7705)"
       id="g1100"><path
         inkscape:connector-curvature="0"
         id="path1102"
         style="fill:#ffffff;fill-opacity:1;fill-rule:evenodd;stroke:none"
         d="m 0,0 c 0.095,-4.11 -9.204,-4.113 -9.204,-1.977 0,2.059 9.3,1.981 9.299,-2.133" /></g><g
       transform="translate(417.3427,633.7705)"
       id="g1104"><path
         inkscape:connector-curvature="0"
         id="path1106"
         style="fill:#ffffff;fill-opacity:1;fill-rule:evenodd;stroke:#231f20;stroke-width:1;stroke-linecap:round;stroke-linejoin:round;stroke-miterlimit:10;stroke-dasharray:none;stroke-opacity:1"
         d="m 0,0 c 0.095,-4.11 -9.204,-4.113 -9.204,-1.977 0,2.059 9.3,1.981 9.299,-2.133" /></g><g
       transform="translate(417.3427,633.7705)"
       id="g1108"><path
         inkscape:connector-curvature="0"
         id="path1110"
         style="fill:none;stroke:#231f20;stroke-width:1;stroke-linecap:round;stroke-linejoin:round;stroke-miterlimit:10;stroke-dasharray:none;stroke-opacity:1"
         d="m 0,0 c 0.095,-4.11 -9.204,-4.113 -9.204,-1.977 0,2.059 9.3,1.981 9.299,-2.133" /></g><g
       transform="translate(417.3427,629.6553)"
       id="g1112"><path
         inkscape:connector-curvature="0"
         id="path1114"
         style="fill:#ffffff;fill-opacity:1;fill-rule:evenodd;stroke:none"
         d="m 0,0 c 0.094,-4.107 -9.203,-4.111 -9.204,-1.975 -10e-4,2.057 9.299,1.98 9.298,-2.132" /></g><g
       transform="translate(417.3427,629.6553)"
       id="g1116"><path
         inkscape:connector-curvature="0"
         id="path1118"
         style="fill:#ffffff;fill-opacity:1;fill-rule:evenodd;stroke:#231f20;stroke-width:1;stroke-linecap:round;stroke-linejoin:round;stroke-miterlimit:10;stroke-dasharray:none;stroke-opacity:1"
         d="m 0,0 c 0.094,-4.107 -9.203,-4.111 -9.204,-1.975 -10e-4,2.057 9.299,1.98 9.298,-2.132" /></g><g
       transform="translate(417.3427,629.6553)"
       id="g1120"><path
         inkscape:connector-curvature="0"
         id="path1122"
         style="fill:none;stroke:#231f20;stroke-width:1;stroke-linecap:round;stroke-linejoin:round;stroke-miterlimit:10;stroke-dasharray:none;stroke-opacity:1"
         d="m 0,0 c 0.094,-4.107 -9.203,-4.111 -9.204,-1.975 -10e-4,2.057 9.299,1.98 9.298,-2.132" /></g><g
       transform="translate(417.3427,625.542)"
       id="g1124"><path
         inkscape:connector-curvature="0"
         id="path1126"
         style="fill:#ffffff;fill-opacity:1;fill-rule:evenodd;stroke:none"
         d="M 0,0 C 0.095,-4.109 -9.204,-4.113 -9.203,-1.976 -9.204,0.081 0.094,0.006 0.095,-4.109" /></g><g
       transform="translate(417.3427,625.542)"
       id="g1128"><path
         inkscape:connector-curvature="0"
         id="path1130"
         style="fill:#ffffff;fill-opacity:1;fill-rule:evenodd;stroke:#231f20;stroke-width:1;stroke-linecap:round;stroke-linejoin:round;stroke-miterlimit:10;stroke-dasharray:none;stroke-opacity:1"
         d="M 0,0 C 0.095,-4.109 -9.204,-4.113 -9.203,-1.976 -9.204,0.081 0.094,0.006 0.095,-4.109" /></g><g
       transform="translate(417.3427,625.542)"
       id="g1132"><path
         inkscape:connector-curvature="0"
         id="path1134"
         style="fill:none;stroke:#231f20;stroke-width:1;stroke-linecap:round;stroke-linejoin:round;stroke-miterlimit:10;stroke-dasharray:none;stroke-opacity:1"
         d="M 0,0 C 0.095,-4.109 -9.204,-4.113 -9.203,-1.976 -9.204,0.081 0.094,0.006 0.095,-4.109" /></g><g
       transform="translate(417.4042,621.4277)"
       id="g1136"><path
         inkscape:connector-curvature="0"
         id="path1138"
         style="fill:#ffffff;fill-opacity:1;fill-rule:evenodd;stroke:none"
         d="M 0,0 C -0.721,-1.646 -2.429,-2.056 -5.278,-2.056" /></g><g
       transform="translate(417.4042,621.4277)"
       id="g1140"><path
         inkscape:connector-curvature="0"
         id="path1142"
         style="fill:#ffffff;fill-opacity:1;fill-rule:evenodd;stroke:#231f20;stroke-width:1;stroke-linecap:round;stroke-linejoin:round;stroke-miterlimit:10;stroke-dasharray:none;stroke-opacity:1"
         d="M 0,0 C -0.721,-1.646 -2.429,-2.056 -5.278,-2.056" /></g><g
       transform="translate(417.4042,621.4277)"
       id="g1144"><path
         inkscape:connector-curvature="0"
         id="path1146"
         style="fill:none;stroke:#231f20;stroke-width:1;stroke-linecap:round;stroke-linejoin:round;stroke-miterlimit:10;stroke-dasharray:none;stroke-opacity:1"
         d="M 0,0 C -0.721,-1.646 -2.429,-2.056 -5.278,-2.056" /></g><g
       transform="translate(417.4042,646.1089)"
       id="g1148"><path
         inkscape:connector-curvature="0"
         id="path1150"
         style="fill:#ffffff;fill-opacity:1;fill-rule:evenodd;stroke:none"
         d="M 0,0 C -0.721,1.646 -2.429,2.058 -5.276,2.057" /></g><g
       transform="translate(417.4042,646.1089)"
       id="g1152"><path
         inkscape:connector-curvature="0"
         id="path1154"
         style="fill:#ffffff;fill-opacity:1;fill-rule:evenodd;stroke:#231f20;stroke-width:1;stroke-linecap:round;stroke-linejoin:round;stroke-miterlimit:10;stroke-dasharray:none;stroke-opacity:1"
         d="M 0,0 C -0.721,1.646 -2.429,2.058 -5.276,2.057" /></g><g
       transform="translate(417.4042,646.1089)"
       id="g1156"><path
         inkscape:connector-curvature="0"
         id="path1158"
         style="fill:none;stroke:#231f20;stroke-width:1;stroke-linecap:round;stroke-linejoin:round;stroke-miterlimit:10;stroke-dasharray:none;stroke-opacity:1"
         d="M 0,0 C -0.721,1.646 -2.429,2.058 -5.276,2.057" /></g><g
       transform="translate(353.6288,587.7241)"
       id="g1160"><path
         inkscape:connector-curvature="0"
         id="path1162"
         style="fill:none;stroke:#33b540;stroke-width:0.75;stroke-linecap:butt;stroke-linejoin:miter;stroke-miterlimit:4;stroke-dasharray:none;stroke-opacity:1"
         d="M 0,0 40.387,-40.388" /></g><g
       transform="translate(351.8329,588.4331)"
       id="g1164"><path
         inkscape:connector-curvature="0"
         id="path1166"
         style="fill:#33b540;fill-opacity:1;fill-rule:nonzero;stroke:none"
         d="m 0,0 c 0.612,-1.142 0.938,-1.956 1.358,-2.941 l 2.676,2.675 C 3.663,-0.134 2.234,0.48 1.093,1.093 -0.129,1.748 -1.174,2.404 -1.795,2.888 -1.312,2.267 -0.655,1.222 0,0" /></g><g
       transform="translate(472.1884,625.5068)"
       id="g1168"><path
         inkscape:connector-curvature="0"
         id="path1170"
         style="fill:none;stroke:#33b540;stroke-width:0.75;stroke-linecap:butt;stroke-linejoin:miter;stroke-miterlimit:4;stroke-dasharray:none;stroke-opacity:1"
         d="M 0,0 -40.387,40.386" /></g><g
       transform="translate(473.9843,624.7983)"
       id="g1172"><path
         inkscape:connector-curvature="0"
         id="path1174"
         style="fill:#33b540;fill-opacity:1;fill-rule:nonzero;stroke:none"
         d="M 0,0 C -0.612,1.142 -0.938,1.955 -1.358,2.94 L -4.034,0.266 c 0.371,-0.133 1.8,-0.747 2.941,-1.359 C 0.129,-1.748 1.174,-2.405 1.795,-2.888 1.313,-2.267 0.655,-1.222 0,0" /></g><g
       transform="translate(431.8017,547.3374)"
       id="g1176"><path
         inkscape:connector-curvature="0"
         id="path1178"
         style="fill:none;stroke:#33b540;stroke-width:0.75;stroke-linecap:butt;stroke-linejoin:miter;stroke-miterlimit:4;stroke-dasharray:none;stroke-opacity:1"
         d="M 0,0 40.386,40.387" /></g><g
       transform="translate(431.0927,545.5415)"
       id="g1180"><path
         inkscape:connector-curvature="0"
         id="path1182"
         style="fill:#33b540;fill-opacity:1;fill-rule:nonzero;stroke:none"
         d="M 0,0 C 1.142,0.612 1.956,0.938 2.941,1.358 L 0.266,4.034 C 0.134,3.663 -0.48,2.234 -1.093,1.093 -1.748,-0.129 -2.404,-1.174 -2.888,-1.795 -2.267,-1.313 -1.222,-0.655 0,0" /></g><g
       transform="translate(394.0155,665.8931)"
       id="g1184"><path
         inkscape:connector-curvature="0"
         id="path1186"
         style="fill:none;stroke:#33b540;stroke-width:0.75;stroke-linecap:butt;stroke-linejoin:miter;stroke-miterlimit:4;stroke-dasharray:none;stroke-opacity:1"
         d="M 0,0 -40.387,-40.386" /></g><g
       transform="translate(394.7245,667.689)"
       id="g1188"><path
         inkscape:connector-curvature="0"
         id="path1190"
         style="fill:#33b540;fill-opacity:1;fill-rule:nonzero;stroke:none"
         d="m 0,0 c -1.142,-0.612 -1.955,-0.938 -2.941,-1.359 l 2.675,-2.675 c 0.132,0.371 0.746,1.8 1.359,2.941 C 1.748,0.129 2.404,1.174 2.888,1.795 2.267,1.312 1.222,0.655 0,0" /></g><g
       transform="translate(423.539,641.6938)"
       id="g1192"><path
         inkscape:connector-curvature="0"
         id="path1194"
         style="fill:none;stroke:#33b540;stroke-width:0.75;stroke-linecap:butt;stroke-linejoin:miter;stroke-miterlimit:4;stroke-dasharray:none;stroke-opacity:1"
         d="M 0,0 0,-27.638" /></g><g
       transform="translate(422.7704,643.4648)"
       id="g1196"><path
         inkscape:connector-curvature="0"
         id="path1198"
         style="fill:#33b540;fill-opacity:1;fill-rule:nonzero;stroke:none"
         d="m 0,0 c -0.375,-1.24 -0.72,-2.045 -1.119,-3.041 l 3.783,0 C 2.495,-2.684 1.92,-1.24 1.546,0 1.145,1.327 0.87,2.531 0.772,3.311 0.675,2.531 0.4,1.327 0,0" /></g><g
       transform="translate(402.2782,571.5356)"
       id="g1200"><path
         inkscape:connector-curvature="0"
         id="path1202"
         style="fill:none;stroke:#33b540;stroke-width:0.75;stroke-linecap:butt;stroke-linejoin:miter;stroke-miterlimit:4;stroke-dasharray:none;stroke-opacity:1"
         d="M 0,0 0,27.64" /></g><g
       transform="translate(403.0468,569.7642)"
       id="g1204"><path
         inkscape:connector-curvature="0"
         id="path1206"
         style="fill:#33b540;fill-opacity:1;fill-rule:nonzero;stroke:none"
         d="m 0,0 c 0.375,1.24 0.72,2.046 1.119,3.041 l -3.783,0 C -2.495,2.685 -1.92,1.24 -1.546,0 -1.145,-1.326 -0.87,-2.53 -0.772,-3.311 -0.675,-2.53 -0.4,-1.326 0,0" /></g><g
       transform="translate(447.9872,595.9858)"
       id="g1208"><path
         inkscape:connector-curvature="0"
         id="path1210"
         style="fill:none;stroke:#33b540;stroke-width:0.75;stroke-linecap:butt;stroke-linejoin:miter;stroke-miterlimit:4;stroke-dasharray:none;stroke-opacity:1"
         d="M 0,0 -27.639,0" /></g><g
       transform="translate(449.7577,596.7544)"
       id="g1212"><path
         inkscape:connector-curvature="0"
         id="path1214"
         style="fill:#33b540;fill-opacity:1;fill-rule:nonzero;stroke:none"
         d="m 0,0 c -1.239,0.375 -2.045,0.72 -3.04,1.119 l 0,-3.783 c 0.356,0.169 1.801,0.744 3.04,1.118 1.328,0.401 2.531,0.676 3.312,0.774 C 2.531,-0.675 1.328,-0.4 0,0" /></g><g
       transform="translate(377.829,617.2451)"
       id="g1216"><path
         inkscape:connector-curvature="0"
         id="path1218"
         style="fill:none;stroke:#33b540;stroke-width:0.75;stroke-linecap:butt;stroke-linejoin:miter;stroke-miterlimit:4;stroke-dasharray:none;stroke-opacity:1"
         d="M 0,0 27.639,0" /></g><g
       transform="translate(376.0575,616.4766)"
       id="g1220"><path
         inkscape:connector-curvature="0"
         id="path1222"
         style="fill:#33b540;fill-opacity:1;fill-rule:nonzero;stroke:none"
         d="m 0,0 c 1.24,-0.375 2.046,-0.72 3.041,-1.119 l 0,3.784 C 2.685,2.495 1.24,1.92 0,1.546 -1.327,1.145 -2.53,0.871 -3.311,0.772 -2.53,0.675 -1.327,0.4 0,0" /></g><text
       id="text1224"
       style="font-variant:normal;font-weight:normal;font-stretch:normal;font-size:12px;font-family:Arial;-inkscape-font-specification:ArialMT;writing-mode:lr-tb;fill:#5a555b;fill-opacity:1;fill-rule:nonzero;stroke:none"
       transform="scale(1,-1)"
       x="364.09271"
       y="-647.25983"><tspan
         id="tspan1226"
         y="-647.25983"
         x="364.09271">a</tspan><tspan
         id="tspan1228"
         y="-646.19177"
         x="453.3847">d</tspan><tspan
         id="tspan1230"
         y="-557.73981"
         x="452.46069">c</tspan><tspan
         id="tspan1232"
         y="-558.21979"
         x="364.32071">b</tspan><tspan
         id="tspan1234"
         y="-674.88379"
         x="408.7327">1</tspan><tspan
         id="tspan1236"
         y="-530.31982"
         x="408.7327">2</tspan><tspan
         id="tspan1238"
         sodipodi:role="line"
         y="-602.60779"
         x="481.02069 336.4567">34</tspan></text>
<text
       id="text1240"
       style="font-variant:normal;font-weight:normal;font-stretch:normal;font-size:10px;font-family:Symbol;-inkscape-font-specification:SymbolMT;writing-mode:lr-tb;fill:#33b540;fill-opacity:1;fill-rule:nonzero;stroke:none"
       transform="scale(1,-1)"
       x="376.23129"
       y="-668.77832"><tspan
         id="tspan1242"
         y="-668.77832"
         x="376.23129"
         style="font-style:normal;font-variant:normal;font-weight:normal;font-stretch:normal;font-family:'Times New Roman';-inkscape-font-specification:'Times New Roman, '">φ</tspan></text>
<text
       id="text1244"
       style="font-variant:normal;font-weight:normal;font-stretch:normal;font-size:5.82999992px;font-family:Arial;-inkscape-font-specification:ArialMT;writing-mode:lr-tb;fill:#33b540;fill-opacity:1;fill-rule:nonzero;stroke:none"
       transform="scale(1,-1)"
       x="382.2626"
       y="-665.44873"><tspan
         id="tspan1246"
         y="-665.44873"
         x="382.2626">a</tspan></text>
<text
       id="text1320"
       style="font-variant:normal;font-weight:normal;font-stretch:normal;font-size:10px;font-family:Symbol;-inkscape-font-specification:SymbolMT;writing-mode:lr-tb;fill:#33b540;fill-opacity:1;fill-rule:nonzero;stroke:none"
       transform="scale(1,-1)"
       x="475.94611"
       y="-634.9541"><tspan
         id="tspan1322"
         y="-634.9541"
         x="475.94611"
         style="font-style:normal;font-variant:normal;font-weight:normal;font-stretch:normal;font-family:'Times New Roman';-inkscape-font-specification:'Times New Roman, '">φ</tspan></text>
<text
       id="text1324"
       style="font-variant:normal;font-weight:normal;font-stretch:normal;font-size:5.82999992px;font-family:Arial;-inkscape-font-specification:ArialMT;writing-mode:lr-tb;fill:#33b540;fill-opacity:1;fill-rule:nonzero;stroke:none"
       transform="scale(1,-1)"
       x="481.97739"
       y="-631.62451"><tspan
         id="tspan1326"
         y="-631.62451"
         x="481.97739">d</tspan></text>
<text
       id="text1328"
       style="font-variant:normal;font-weight:normal;font-stretch:normal;font-size:10px;font-family:Symbol;-inkscape-font-specification:SymbolMT;writing-mode:lr-tb;fill:#33b540;fill-opacity:1;fill-rule:nonzero;stroke:none"
       transform="scale(1,-1)"
       x="345.82111"
       y="-573.44733"><tspan
         id="tspan1330"
         y="-573.44733"
         x="345.82111"
         style="font-style:normal;font-variant:normal;font-weight:normal;font-stretch:normal;font-family:'Times New Roman';-inkscape-font-specification:'Times New Roman, '">φ</tspan></text>
<text
       id="text1332"
       style="font-variant:normal;font-weight:normal;font-stretch:normal;font-size:5.82999992px;font-family:Arial;-inkscape-font-specification:ArialMT;writing-mode:lr-tb;fill:#33b540;fill-opacity:1;fill-rule:nonzero;stroke:none"
       transform="scale(1,-1)"
       x="351.85239"
       y="-570.11768"><tspan
         id="tspan1334"
         y="-570.11768"
         x="351.85239">b</tspan></text>
<text
       id="text1336"
       style="font-variant:normal;font-weight:normal;font-stretch:normal;font-size:10px;font-family:Symbol;-inkscape-font-specification:SymbolMT;writing-mode:lr-tb;fill:#33b540;fill-opacity:1;fill-rule:nonzero;stroke:none"
       transform="scale(1,-1)"
       x="440.38159"
       y="-542.06641"><tspan
         id="tspan1338"
         y="-542.06641"
         x="440.38159"
         style="font-style:normal;font-variant:normal;font-weight:normal;font-stretch:normal;font-family:'Times New Roman';-inkscape-font-specification:'Times New Roman, '">φ</tspan></text>
<text
       id="text1340"
       style="font-variant:normal;font-weight:normal;font-stretch:normal;font-size:5.82999992px;font-family:Arial;-inkscape-font-specification:ArialMT;writing-mode:lr-tb;fill:#33b540;fill-opacity:1;fill-rule:nonzero;stroke:none"
       transform="scale(1,-1)"
       x="446.41299"
       y="-538.73682"><tspan
         id="tspan1342"
         y="-538.73682"
         x="446.41299">c</tspan></text>
<text
       id="text1344"
       style="font-variant:normal;font-weight:normal;font-stretch:normal;font-size:10px;font-family:Symbol;-inkscape-font-specification:SymbolMT;writing-mode:lr-tb;fill:#33b540;fill-opacity:1;fill-rule:nonzero;stroke:none"
       transform="scale(1,-1)"
       x="428.12579"
       y="-622.57709"><tspan
         id="tspan1346"
         y="-622.57709"
         x="428.12579"
         style="font-style:normal;font-variant:normal;font-weight:normal;font-stretch:normal;font-family:'Times New Roman';-inkscape-font-specification:'Times New Roman, '">φ</tspan></text>
<text
       id="text1348"
       style="font-variant:normal;font-weight:normal;font-stretch:normal;font-size:5.82999992px;font-family:Arial;-inkscape-font-specification:ArialMT;writing-mode:lr-tb;fill:#33b540;fill-opacity:1;fill-rule:nonzero;stroke:none"
       transform="scale(1,-1)"
       x="434.1571"
       y="-619.24762"><tspan
         id="tspan1350"
         y="-619.24762"
         x="434.1571">L</tspan><tspan
         id="tspan1352"
         y="-616.24518"
         x="437.39859">1</tspan></text>
<text
       id="text1354"
       style="font-variant:normal;font-weight:normal;font-stretch:normal;font-size:10px;font-family:Symbol;-inkscape-font-specification:SymbolMT;writing-mode:lr-tb;fill:#33b540;fill-opacity:1;fill-rule:nonzero;stroke:none"
       transform="scale(1,-1)"
       x="392.5853"
       y="-625.71582"><tspan
         id="tspan1356"
         y="-625.71582"
         x="392.5853"
         style="font-style:normal;font-variant:normal;font-weight:normal;font-stretch:normal;font-family:'Times New Roman';-inkscape-font-specification:'Times New Roman, '">φ</tspan></text>
<text
       id="text1358"
       style="font-variant:normal;font-weight:normal;font-stretch:normal;font-size:5.82999992px;font-family:Arial;-inkscape-font-specification:ArialMT;writing-mode:lr-tb;fill:#33b540;fill-opacity:1;fill-rule:nonzero;stroke:none"
       transform="scale(1,-1)"
       x="398.61661"
       y="-622.38623"><tspan
         id="tspan1360"
         y="-622.38623"
         x="398.61661">L</tspan><tspan
         id="tspan1362"
         y="-619.38373"
         x="401.85809">4</tspan></text>
<text
       id="text1364"
       style="font-variant:normal;font-weight:normal;font-stretch:normal;font-size:10px;font-family:Symbol;-inkscape-font-specification:SymbolMT;writing-mode:lr-tb;fill:#33b540;fill-opacity:1;fill-rule:nonzero;stroke:none"
       transform="scale(1,-1)"
       x="422.2923"
       y="-586.38483"><tspan
         id="tspan1366"
         y="-586.38483"
         x="422.2923"
         style="font-style:normal;font-variant:normal;font-weight:normal;font-stretch:normal;font-family:'Times New Roman';-inkscape-font-specification:'Times New Roman, '">φ</tspan></text>
<text
       id="text1368"
       style="font-variant:normal;font-weight:normal;font-stretch:normal;font-size:5.82999992px;font-family:Arial;-inkscape-font-specification:ArialMT;writing-mode:lr-tb;fill:#33b540;fill-opacity:1;fill-rule:nonzero;stroke:none"
       transform="scale(1,-1)"
       x="428.32361"
       y="-583.05518"><tspan
         id="tspan1370"
         y="-583.05518"
         x="428.32361">L</tspan><tspan
         id="tspan1372"
         y="-580.05273"
         x="431.56509">3</tspan></text>
<text
       id="text1374"
       style="font-variant:normal;font-weight:normal;font-stretch:normal;font-size:10px;font-family:Symbol;-inkscape-font-specification:SymbolMT;writing-mode:lr-tb;fill:#33b540;fill-opacity:1;fill-rule:nonzero;stroke:none"
       transform="scale(1,-1)"
       x="388.82062"
       y="-590.15143"><tspan
         id="tspan1376"
         y="-590.15143"
         x="388.82062"
         style="font-style:normal;font-variant:normal;font-weight:normal;font-stretch:normal;font-family:'Times New Roman';-inkscape-font-specification:'Times New Roman, '">φ</tspan></text>
<text
       id="text1378"
       style="font-variant:normal;font-weight:normal;font-stretch:normal;font-size:5.82999992px;font-family:Arial;-inkscape-font-specification:ArialMT;writing-mode:lr-tb;fill:#33b540;fill-opacity:1;fill-rule:nonzero;stroke:none"
       transform="scale(1,-1)"
       x="394.85199"
       y="-586.82178"><tspan
         id="tspan1380"
         y="-586.82178"
         x="394.85199">L</tspan><tspan
         id="tspan1382"
         y="-583.81934"
         x="398.09348">2</tspan></text>
</g></svg>